…
Because counting observations is a very common task, dplyr offers the
wrapper `count`, which is equivalent to `group_by %>% summarise( n() )`
except that it `ungroup()` after.

``` r
selfiesCasualties %>% 
  count(country, gender)
```

    ## # A tibble: 26 x 3
    ##    country   gender     n
    ##    <chr>     <fct>  <int>
    ##  1 Australia Male       1
    ##  2 Chile     Female     1
    ##  3 China     Female     1
    ##  4 China     Male       2
    ##  5 Hong Kong Male       1
    ##  6 India     Female     6
    ##  7 India     Male      38
    ##  8 Indonesia Male       2
    ##  9 Italy     Female     1
    ## 10 Mexico    Male       1
    ## # ... with 16 more rows
…
