…
``` r
bad_drivers %>% summarise(mean = mean(num_drivers), median = median(num_drivers))
## # A tibble: 1 x 2
##    mean median
##   <dbl>  <dbl>
## 1  15.8   15.6
bad_drivers %>% summarise_at(vars(num_drivers), .funs = funs(mean, median))
## # A tibble: 1 x 2
##    mean median
##   <dbl>  <dbl>
## 1  15.8   15.6

bad_drivers %>% mutate_if(is.integer, .funs = funs(paste0(., '%')))
## # A tibble: 51 x 8
##    state num_drivers perc_speeding perc_alcohol perc_not_distra…
##    <chr>       <dbl> <chr>         <chr>        <chr>           
##  1 Alab…        18.8 39%           30%          96%             
##  2 Alas…        18.1 41%           25%          90%             
##  3 Ariz…        18.6 35%           28%          84%             
##  4 Arka…        22.4 18%           26%          94%             
##  5 Cali…        12   35%           28%          91%             
##  6 Colo…        13.6 37%           28%          79%             
##  7 Conn…        10.8 46%           36%          87%             
##  8 Dela…        16.2 38%           30%          87%             
##  9 Dist…         5.9 34%           27%          100%            
## 10 Flor…        17.9 21%           29%          92%             
## # ... with 41 more rows, and 3 more variables: perc_no_previous <chr>,
## #   insurance_premiums <dbl>, losses <dbl>
bad_drivers %>% mutate_at(vars(starts_with('perc')), .funs = funs(paste0(., '%')))
## # A tibble: 51 x 8
##    state num_drivers perc_speeding perc_alcohol perc_not_distra…
##    <chr>       <dbl> <chr>         <chr>        <chr>           
##  1 Alab…        18.8 39%           30%          96%             
##  2 Alas…        18.1 41%           25%          90%             
##  3 Ariz…        18.6 35%           28%          84%             
##  4 Arka…        22.4 18%           26%          94%             
##  5 Cali…        12   35%           28%          91%             
##  6 Colo…        13.6 37%           28%          79%             
##  7 Conn…        10.8 46%           36%          87%             
##  8 Dela…        16.2 38%           30%          87%             
##  9 Dist…         5.9 34%           27%          100%            
## 10 Flor…        17.9 21%           29%          92%             
## # ... with 41 more rows, and 3 more variables: perc_no_previous <chr>,
## #   insurance_premiums <dbl>, losses <dbl>
```
…
